Motus tracking of urban migration stopovers - Basic Filtering
…
no_tag_dep <- map(runs, \(x) filter(x, is.na(speciesID)))
no_recv_dep <- map(runs, \(x) filter(x, is.na(recvDeployID)))

To be sure that we’re not missing things, we’ll explore what is removed if we use tagDeployID rather than speciesID (as we could conceivibly have tags with a deploy id but not species ids).

no_tag_dep_check <- map(runs, \(x) filter(x, is.na(tagDeployID)))

For example, in this project for this tag, we have no species ids for a series of runs.

no_tag_dep_check[["484"]] |>
  filter(tagID == 63138) |>
  collect_ts()

# A tibble: 301 × 9
       runID motusFilter tagID tagDeployID speciesID recvDeployID recvDeviceID
       <int>       <dbl> <int>       <int>     <int>        <int>        <int>
 1 462984876           0 63138          NA        NA         8262         2392
 2 462986025           0 63138          NA        NA         8262         2392
 3 462987529           0 63138          NA        NA         8262         2392
 4 475644251           0 63138          NA        NA         8513         2626
 5 475647457           0 63138          NA        NA         8006         2361
 6 477819172           0 63138          NA        NA         8002         2382
 7 478646782           0 63138          NA        NA         8262         2392
 8 480019785           0 63138          NA        NA         7700         1552
 9 481242586           0 63138          NA        NA         8457         2656
10 481245624           0 63138          NA        NA         8457         2656
# ℹ 291 more rows
# ℹ 2 more variables: tsBegin <dttm>, tsEnd <dttm>
…
So we can actually remove all records with missing species ids without worry.

For example, in this project (484) for this receiver device ID (3071), we have no deployment ids (recvDeployID) for a series of runs.

no_recv_dep_check <- map(runs, \(x) filter(x, is.na(recvDeployID)))

no_recv_dep_check[["484"]] |>
  filter(recvDeviceID == "3071") |>
  collect_ts()

# A tibble: 40 × 9
       runID motusFilter tagID tagDeployID speciesID recvDeployID recvDeviceID
       <int>       <dbl> <int>       <int>     <int>        <int>        <int>
 1 540827863           0 62740       41246     18550           NA         3071
 2 540827867           0 62740       41246     18550           NA         3071
 3 540827898           0 62740       41246     18550           NA         3071
 4 540827900           0 62740       41246     18550           NA         3071
 5 540827914           0 62740       41246     18550           NA         3071
 6 540827956           0 62740       41246     18550           NA         3071
 7 540827975           0 62737       41243     18550           NA         3071
 8 540827979           0 62740       41246     18550           NA         3071
 9 540827997           0 62737       41243     18550           NA         3071
10 540828021           0 62740       41246     18550           NA         3071
# ℹ 30 more rows
# ℹ 2 more variables: tsBegin <dttm>, tsEnd <dttm>
…
