Motus tracking of urban migration stopovers - Fine-scale Filtering
…
There are no ambiguous runs left the data after we cleaned, so we’ll just ignore them for now.

Looking at the filters

noise_hits <- bind_rows(noise_tags, noise_quality) |>
  select("runID", "tagDeployID", "recvDeployID") |>
  distinct()

noise_hits

# A tibble: 338,272 × 3
       runID tagDeployID recvDeployID
       <int>       <int>        <int>
 1 491015464       41214         8415
 2 491016044       41214         8415
 3 491016057       41214         8415
 4 491221057       44340         8415
 5 491221058       44339         8415
 6 491221059       44339         8415
 7 491221071       44340         8415
 8 491221093       44339         8415
 9 491221094       44339         8415
10 491221102       44340         8415
# ℹ 338,262 more rows
…
